<?xml version="1.0" encoding="UTF-8" standalone="no"?>
<!DOCTYPE svg PUBLIC "-//W3C//DTD SVG 1.1//EN"
 "http://www.w3.org/Graphics/SVG/1.1/DTD/svg11.dtd">
<!-- Generated by graphviz version 2.38.0 (20140413.2041)
 -->
<!-- Title: %3 Pages: 1 -->
<svg width="798pt" height="222pt"
 viewBox="0.00 0.00 797.62 222.45" xmlns="http://www.w3.org/2000/svg" xmlns:xlink="http://www.w3.org/1999/xlink">
<g id="graph0" class="graph" transform="scale(1 1) rotate(0) translate(4 218.451)">
<title>%3</title>
<polygon fill="white" stroke="none" points="-4,4 -4,-218.451 793.616,-218.451 793.616,4 -4,4"/>
<!-- up -->
<g id="node1" class="node"><title>up</title>
<polygon fill="lightgray" stroke="black" points="149.616,-140.459 120.616,-140.459 120.616,-122.459 149.616,-122.459 149.616,-140.459"/>
<text text-anchor="middle" x="135.116" y="-129.259" font-family="Times,serif" font-size="9.00">up</text>
</g>
<!-- LEFT -->
<g id="node15" class="node"><title>LEFT</title>
<ellipse fill="lightblue" stroke="black" cx="193.116" cy="-33.234" rx="28.9828" ry="28.9828"/>
<text text-anchor="middle" x="193.116" y="-31.034" font-family="Times,serif" font-size="9.00">LEFT</text>
</g>
<!-- up&#45;&gt;LEFT -->
<g id="edge3" class="edge"><title>up&#45;&gt;LEFT</title>
<path fill="none" stroke="green" stroke-width="0.450282" stroke-dasharray="1,5" d="M140.061,-122.255C147.378,-110.116 161.499,-86.6883 173.334,-67.0532"/>
<polygon fill="green" stroke="green" stroke-width="0.450282" points="176.413,-68.7241 178.578,-58.3528 170.418,-65.1105 176.413,-68.7241"/>
</g>
<!-- down -->
<g id="node2" class="node"><title>down</title>
<polygon fill="lightgray" stroke="black" points="512.616,-214.451 471.616,-214.451 471.616,-196.451 512.616,-196.451 512.616,-214.451"/>
<text text-anchor="middle" x="492.116" y="-203.251" font-family="Times,serif" font-size="9.00">down</text>
</g>
<!-- left -->
<g id="node3" class="node"><title>left</title>
<polygon fill="lightgray" stroke="black" points="453.116,-214.451 421.116,-214.451 421.116,-196.451 453.116,-196.451 453.116,-214.451"/>
<text text-anchor="middle" x="437.116" y="-203.251" font-family="Times,serif" font-size="9.00">left</text>
</g>
<!-- UP -->
<g id="node13" class="node"><title>UP</title>
<ellipse fill="lightblue" stroke="black" cx="68.1158" cy="-33.234" rx="21.4286" ry="21.4286"/>
<text text-anchor="middle" x="68.1158" y="-31.034" font-family="Times,serif" font-size="9.00">UP</text>
</g>
<!-- left&#45;&gt;UP -->
<g id="edge17" class="edge"><title>left&#45;&gt;UP</title>
<path fill="none" stroke="red" stroke-width="0.588891" stroke-dasharray="1,5" d="M421.083,-204.041C346.764,-201.978 38.1974,-191.575 10.1158,-160.451 -17.9404,-129.355 18.764,-82.3611 45.2734,-55.3511"/>
<polygon fill="red" stroke="red" stroke-width="0.588891" points="47.7639,-57.8107 52.4178,-48.2927 42.8442,-52.831 47.7639,-57.8107"/>
</g>
<!-- DOWN -->
<g id="node14" class="node"><title>DOWN</title>
<ellipse fill="lightblue" stroke="black" cx="379.116" cy="-33.234" rx="33.4697" ry="33.4697"/>
<text text-anchor="middle" x="379.116" y="-31.034" font-family="Times,serif" font-size="9.00">DOWN</text>
</g>
<!-- left&#45;&gt;DOWN -->
<g id="edge4" class="edge"><title>left&#45;&gt;DOWN</title>
<path fill="none" stroke="red" stroke-width="0.500709" stroke-dasharray="1,5" d="M436.524,-196.273C435.048,-178.644 430.401,-135.945 418.116,-102.468 414.044,-91.372 408.262,-79.9724 402.394,-69.7453"/>
<polygon fill="red" stroke="red" stroke-width="0.500709" points="405.372,-67.9061 397.255,-61.0967 399.354,-71.4816 405.372,-67.9061"/>
</g>
<!-- left&#45;&gt;LEFT -->
<g id="edge20" class="edge"><title>left&#45;&gt;LEFT</title>
<path fill="none" stroke="red" stroke-width="0.269604" stroke-dasharray="1,5" d="M420.675,-203.964C347.286,-201.628 52.0455,-190.41 25.1158,-160.451 7.88821,-141.285 10.7248,-123.846 25.1158,-102.468 32.8501,-90.9787 109.341,-63.0409 156.403,-46.6983"/>
<polygon fill="red" stroke="red" stroke-width="0.269604" points="157.653,-49.9694 165.963,-43.3971 155.369,-43.3527 157.653,-49.9694"/>
</g>
<!-- RIGHT -->
<g id="node16" class="node"><title>RIGHT</title>
<ellipse fill="lightblue" stroke="black" cx="530.116" cy="-33.234" rx="33.4697" ry="33.4697"/>
<text text-anchor="middle" x="530.116" y="-31.034" font-family="Times,serif" font-size="9.00">RIGHT</text>
</g>
<!-- left&#45;&gt;RIGHT -->
<g id="edge8" class="edge"><title>left&#45;&gt;RIGHT</title>
<path fill="none" stroke="green" stroke-width="0.251762" stroke-dasharray="1,5" d="M453.247,-199.103C456.492,-198.136 459.896,-197.199 463.116,-196.451 512.652,-184.944 656.105,-199.136 689.116,-160.451 705.843,-140.848 703.297,-123.985 689.116,-102.468 663.581,-63.723 610.968,-46.8919 573.253,-39.6358"/>
<polygon fill="green" stroke="green" stroke-width="0.251762" points="573.502,-36.1257 563.046,-37.8329 572.284,-43.019 573.502,-36.1257"/>
</g>
<!-- 4686 -->
<g id="node17" class="node"><title>4686</title>
<ellipse fill="white" stroke="black" cx="567.116" cy="-131.459" rx="28.9828" ry="28.9828"/>
<text text-anchor="middle" x="567.116" y="-129.259" font-family="Times,serif" font-size="9.00">4686</text>
</g>
<!-- left&#45;&gt;4686 -->
<g id="edge11" class="edge"><title>left&#45;&gt;4686</title>
<path fill="none" stroke="red" stroke-width="0.477578" d="M453.431,-197.94C472.42,-190.091 504.452,-176.002 530.116,-160.451 532.286,-159.136 534.482,-157.721 536.665,-156.25"/>
<polygon fill="red" stroke="red" stroke-width="0.477578" points="538.796,-159.03 544.937,-150.396 534.752,-153.316 538.796,-159.03"/>
</g>
<!-- right -->
<g id="node4" class="node"><title>right</title>
<polygon fill="lightgray" stroke="black" points="331.116,-140.459 291.116,-140.459 291.116,-122.459 331.116,-122.459 331.116,-140.459"/>
<text text-anchor="middle" x="311.116" y="-129.259" font-family="Times,serif" font-size="9.00">right</text>
</g>
<!-- right&#45;&gt;LEFT -->
<g id="edge14" class="edge"><title>right&#45;&gt;LEFT</title>
<path fill="none" stroke="red" stroke-width="0.371343" stroke-dasharray="1,5" d="M303.221,-122.364C297.516,-116.632 289.539,-108.86 282.116,-102.468 263.604,-86.528 241.859,-69.8223 224.497,-56.9304"/>
<polygon fill="red" stroke="red" stroke-width="0.371343" points="226.485,-54.0473 216.36,-50.9281 222.33,-59.6807 226.485,-54.0473"/>
</g>
<!-- right&#45;&gt;RIGHT -->
<g id="edge7" class="edge"><title>right&#45;&gt;RIGHT</title>
<path fill="none" stroke="red" stroke-width="0.259674" stroke-dasharray="1,5" d="M317.997,-122.129C323.452,-115.98 331.558,-107.788 340.116,-102.468 365.403,-86.7461 440.824,-61.835 488.689,-46.8589"/>
<polygon fill="red" stroke="red" stroke-width="0.259674" points="489.947,-50.133 498.456,-43.8208 487.868,-43.4488 489.947,-50.133"/>
</g>
<!-- uppellet -->
<g id="node5" class="node"><title>uppellet</title>
<polygon fill="lightgray" stroke="black" points="585.616,-214.451 530.616,-214.451 530.616,-196.451 585.616,-196.451 585.616,-214.451"/>
<text text-anchor="middle" x="558.116" y="-203.251" font-family="Times,serif" font-size="9.00">uppellet</text>
</g>
<!-- downpellet -->
<g id="node6" class="node"><title>downpellet</title>
<polygon fill="lightgray" stroke="black" points="102.116,-140.459 34.1158,-140.459 34.1158,-122.459 102.116,-122.459 102.116,-140.459"/>
<text text-anchor="middle" x="68.1158" y="-129.259" font-family="Times,serif" font-size="9.00">downpellet</text>
</g>
<!-- downpellet&#45;&gt;UP -->
<g id="edge15" class="edge"><title>downpellet&#45;&gt;UP</title>
<path fill="none" stroke="red" stroke-width="1.05501" d="M68.1158,-122.255C68.1158,-109.696 68.1158,-85.0535 68.1158,-65.0292"/>
<polygon fill="red" stroke="red" stroke-width="1.05501" points="71.6159,-64.7771 68.1158,-54.7772 64.6159,-64.7772 71.6159,-64.7771"/>
</g>
<!-- downpellet&#45;&gt;DOWN -->
<g id="edge1" class="edge"><title>downpellet&#45;&gt;DOWN</title>
<path fill="none" stroke="green" stroke-width="0.363067" stroke-dasharray="1,5" d="M78.5132,-122.289C86.8939,-116.06 99.205,-107.69 111.116,-102.468 151.498,-84.7637 271.893,-57.3393 336.698,-43.2563"/>
<polygon fill="green" stroke="green" stroke-width="0.363067" points="337.567,-46.6494 346.601,-41.1142 336.087,-39.8077 337.567,-46.6494"/>
</g>
<!-- downpellet&#45;&gt;LEFT -->
<g id="edge18" class="edge"><title>downpellet&#45;&gt;LEFT</title>
<path fill="none" stroke="green" stroke-width="1.17453" d="M78.7732,-122.255C97.0719,-108.169 135.117,-78.8819 162.296,-57.9594"/>
<polygon fill="green" stroke="green" stroke-width="1.17453" points="164.559,-60.6343 170.348,-51.7609 160.289,-55.0874 164.559,-60.6343"/>
</g>
<!-- leftpellet -->
<g id="node7" class="node"><title>leftpellet</title>
<polygon fill="lightgray" stroke="black" points="408.616,-140.459 349.616,-140.459 349.616,-122.459 408.616,-122.459 408.616,-140.459"/>
<text text-anchor="middle" x="379.116" y="-129.259" font-family="Times,serif" font-size="9.00">leftpellet</text>
</g>
<!-- leftpellet&#45;&gt;DOWN -->
<g id="edge21" class="edge"><title>leftpellet&#45;&gt;DOWN</title>
<path fill="none" stroke="red" stroke-width="0.153544" d="M379.116,-122.255C379.116,-112.168 379.116,-94.2873 379.116,-77.2644"/>
<polygon fill="red" stroke="red" stroke-width="0.153544" points="382.616,-76.8535 379.116,-66.8535 375.616,-76.8535 382.616,-76.8535"/>
</g>
<!-- leftpellet&#45;&gt;LEFT -->
<g id="edge9" class="edge"><title>leftpellet&#45;&gt;LEFT</title>
<path fill="none" stroke="green" stroke-width="0.787497" d="M368.882,-122.301C361.217,-116.396 350.335,-108.436 340.116,-102.468 303.722,-81.215 259.591,-61.4724 229.236,-48.7488"/>
<polygon fill="green" stroke="green" stroke-width="0.787497" points="230.47,-45.4715 219.892,-44.8714 227.787,-51.9369 230.47,-45.4715"/>
</g>
<!-- leftpellet&#45;&gt;RIGHT -->
<g id="edge23" class="edge"><title>leftpellet&#45;&gt;RIGHT</title>
<path fill="none" stroke="green" stroke-width="0.356706" stroke-dasharray="1,5" d="M391.73,-122.421C413.983,-108.24 460.977,-78.2931 494.004,-57.2466"/>
<polygon fill="green" stroke="green" stroke-width="0.356706" points="495.943,-60.1609 502.496,-51.8351 492.181,-54.2576 495.943,-60.1609"/>
</g>
<!-- rightpellet -->
<g id="node8" class="node"><title>rightpellet</title>
<polygon fill="lightgray" stroke="black" points="680.116,-140.459 614.116,-140.459 614.116,-122.459 680.116,-122.459 680.116,-140.459"/>
<text text-anchor="middle" x="647.116" y="-129.259" font-family="Times,serif" font-size="9.00">rightpellet</text>
</g>
<!-- rightpellet&#45;&gt;RIGHT -->
<g id="edge5" class="edge"><title>rightpellet&#45;&gt;RIGHT</title>
<path fill="none" stroke="green" stroke-width="0.505396" stroke-dasharray="1,5" d="M637.14,-122.255C620.984,-108.968 588.383,-82.155 563.385,-61.5957"/>
<polygon fill="green" stroke="green" stroke-width="0.505396" points="565.513,-58.8143 555.566,-55.1654 561.066,-64.2207 565.513,-58.8143"/>
</g>
<!-- pisup -->
<g id="node9" class="node"><title>pisup</title>
<polygon fill="lightgray" stroke="black" points="209.116,-140.459 167.116,-140.459 167.116,-122.459 209.116,-122.459 209.116,-140.459"/>
<text text-anchor="middle" x="188.116" y="-129.259" font-family="Times,serif" font-size="9.00">pisup</text>
</g>
<!-- pisup&#45;&gt;UP -->
<g id="edge6" class="edge"><title>pisup&#45;&gt;UP</title>
<path fill="none" stroke="green" stroke-width="0.960575" d="M179.918,-122.382C174.002,-116.66 165.745,-108.891 158.116,-102.468 136.975,-84.6706 111.833,-65.7884 93.5039,-52.41"/>
<polygon fill="green" stroke="green" stroke-width="0.960575" points="95.25,-49.3527 85.1004,-46.3134 91.1394,-55.0187 95.25,-49.3527"/>
</g>
<!-- pisup&#45;&gt;RIGHT -->
<g id="edge19" class="edge"><title>pisup&#45;&gt;RIGHT</title>
<path fill="none" stroke="red" stroke-width="0.281283" stroke-dasharray="1,5" d="M194.593,-122.232C200.131,-115.798 208.684,-107.178 218.116,-102.468 300.093,-61.531 331.931,-87.4934 421.116,-66.468 443.729,-61.1369 468.597,-53.8916 488.863,-47.6204"/>
<polygon fill="red" stroke="red" stroke-width="0.281283" points="489.913,-50.9591 498.412,-44.6326 487.823,-44.2785 489.913,-50.9591"/>
</g>
<!-- pisdown -->
<g id="node10" class="node"><title>pisdown</title>
<polygon fill="lightgray" stroke="black" points="520.616,-140.459 465.616,-140.459 465.616,-122.459 520.616,-122.459 520.616,-140.459"/>
<text text-anchor="middle" x="493.116" y="-129.259" font-family="Times,serif" font-size="9.00">pisdown</text>
</g>
<!-- pisdown&#45;&gt;DOWN -->
<g id="edge10" class="edge"><title>pisdown&#45;&gt;DOWN</title>
<path fill="none" stroke="green" stroke-width="1.46069" d="M483.396,-122.255C467.819,-109.107 436.552,-82.7153 412.299,-62.2438"/>
<polygon fill="green" stroke="green" stroke-width="1.46069" points="414.276,-59.3316 404.376,-55.556 409.76,-64.6808 414.276,-59.3316"/>
</g>
<!-- pisdown&#45;&gt;RIGHT -->
<g id="edge12" class="edge"><title>pisdown&#45;&gt;RIGHT</title>
<path fill="none" stroke="green" stroke-width="0.476047" d="M496.27,-122.255C500.37,-111.595 507.816,-92.2277 514.683,-74.3693"/>
<polygon fill="green" stroke="green" stroke-width="0.476047" points="518.091,-75.2579 518.413,-64.6679 511.558,-72.7456 518.091,-75.2579"/>
</g>
<!-- pisleft -->
<g id="node11" class="node"><title>pisleft</title>
<polygon fill="lightgray" stroke="black" points="273.116,-140.459 227.116,-140.459 227.116,-122.459 273.116,-122.459 273.116,-140.459"/>
<text text-anchor="middle" x="250.116" y="-129.259" font-family="Times,serif" font-size="9.00">pisleft</text>
</g>
<!-- pisleft&#45;&gt;DOWN -->
<g id="edge2" class="edge"><title>pisleft&#45;&gt;DOWN</title>
<path fill="none" stroke="red" stroke-width="0.821735" d="M258.867,-122.358C265.181,-116.624 273.99,-108.851 282.116,-102.468 301.824,-86.9864 324.721,-70.8008 343.318,-58.0807"/>
<polygon fill="red" stroke="red" stroke-width="0.821735" points="345.498,-60.831 351.8,-52.3146 341.562,-55.0419 345.498,-60.831"/>
</g>
<!-- pisleft&#45;&gt;LEFT -->
<g id="edge16" class="edge"><title>pisleft&#45;&gt;LEFT</title>
<path fill="none" stroke="green" stroke-width="1.94648" d="M245.256,-122.255C238.112,-110.195 224.367,-86.9921 212.783,-67.4362"/>
<polygon fill="green" stroke="green" stroke-width="1.94648" points="215.752,-65.5808 207.644,-58.7608 209.73,-69.1484 215.752,-65.5808"/>
</g>
<!-- pisright -->
<g id="node12" class="node"><title>pisright</title>
<polygon fill="lightgray" stroke="black" points="789.616,-140.459 736.616,-140.459 736.616,-122.459 789.616,-122.459 789.616,-140.459"/>
<text text-anchor="middle" x="763.116" y="-129.259" font-family="Times,serif" font-size="9.00">pisright</text>
</g>
<!-- pisright&#45;&gt;RIGHT -->
<g id="edge13" class="edge"><title>pisright&#45;&gt;RIGHT</title>
<path fill="none" stroke="red" stroke-width="0.166974" d="M752.793,-122.303C744.769,-116.245 733.18,-108.092 722.116,-102.468 672.548,-77.2737 611.468,-57.2946 571.699,-45.6243"/>
<polygon fill="red" stroke="red" stroke-width="0.166974" points="572.646,-42.2548 562.067,-42.8381 570.701,-48.9791 572.646,-42.2548"/>
</g>
<!-- 4686&#45;&gt;RIGHT -->
<g id="edge22" class="edge"><title>4686&#45;&gt;RIGHT</title>
<path fill="none" stroke="red" stroke-width="0.220791" d="M557.005,-104.165C553.438,-94.8882 549.343,-84.2379 545.442,-74.0924"/>
<polygon fill="red" stroke="red" stroke-width="0.220791" points="548.641,-72.6589 541.785,-64.5813 542.107,-75.1712 548.641,-72.6589"/>
</g>
</g>
</svg>
